    1  ls
    2  ping 8.8.8.8
    3  reboot
    4  yum install vsftp ftp filezilla
    5  yum install vsftp ftp 
    6  yum install vsftp 
    7  yum install vsftpd 
    8  yum install vsftpd ftp filezilla
    9  vi /etc/vsftpd/vsftpd.conf 
   10  systemctl restart vsftpd
   11  i pa
   12  ip a
   13  ftp localhost
   14  ip a
   15  ftp localhost
   16  vi /etc/vsftpd/vsftpd.conf 
   17  ftp localhost
   18  ip a
   19  vi /etc/vsftpd/vsftpd.conf 
   20  ftp localhost
   21  systemctl reload  vsftpd
   22  systemctl restart  vsftpd
   23  ftp localhost
   24  ip a
   25  su safa
   26  vi /etc/vsftpd/vsftpd.conf 
   27  systemctl restart vsftd
   28  systemctl restart vsftpd
   29  systemctl  vsftpd
   30  vi /etc/vsftpd/vsftpd.conf 
   31  systemctl restart vsftpd
   32  systemctl status vsftpd
   33  ftp localhost 
   34  vi /etc/vsftpd/vsftpd
   35  vi /etc/vsftpd/vsftpd.conf 
   36  systemctl restart vsftpd
   37  ip a
   38  netstat -tlpn
   39  netstat -tlpnu
   40  netstat -tulpn
   41  apt-get install squid
   42  yum install squid
   43  jobs -l
   44  kill -9 1313
   45  yum install squid
   46  reboot
   47  yum install squid
   48  ping 8.8.8.8
   49  dhclient
   50  ping 8.8.8.8
   51  yum install squid
   52  vi /etc/squid/squid.conf
   53  ls
   54  vi /etc/squid/squid.conf
   55  vi /etc/squid/errorpage.css
   56  vi /etc/squid/mime.conf
   57  vi /etc/squid/cachemgr.conf
   58  ls
   59  vi /etc/squid/squid.conf
   60  cd /usr/share/squid/errors/
   61  ls
   62  cat tr-tr/
   63  cd tr-tr/
   64  ls
   65  cat ERR_A
   66  cat ERR_ACCESS_DENIED 
   67  ip a
   68  ping 8.8.8.8
   69  reboot
   70  ip a
   71  dhclient -r
   72  ip a
   73  dhclient 
   74  ip a
   75  dhclient
   76  ip a
   77  dhclient -r
   78  dhclient 
   79  ip a
   80  dhclient 0r
   81  dhclient -r
   82  ip a
   83  dhclient
   84  ip a
   85  dhclient
   86  dhclient -r
   87  ip a
   88  dhclient 
   89  ip a
   90  dhclient 
   91  reboot
   92  ip a
   93  dhclient
   94  ip a
   95  dhclient -r
   96  dhclient
   97  ip a
   98  dhclient
   99  dhclient -r
  100  dhclient
  101  ip a
  102  reboot
  103  vi /etc/firewalld/services/squid.xml
  104  firewall-cmd --reload
  105  systemctl start firewalld
  106  firewall-cmd --reload
  107  firewall-cmd --zone=public --add-service squid
  108  vi /etc/squid/squid.conf
  109  systemctl restart squid
  110  ip a
  111  ping 8.8.8.8
  112  dhclient
  113  ping 8.8.8.8
  114  dhclient -r
  115  dhclient 
  116  ip a
  117  nano /etc/squid/squid.conf
  118  vi /etc/squid/squid.conf
  119  systemctl restart squid
  120  ip a
  121  vi /etc/squid/squid.conf
  122  systemctl stop firewalld
  123  ip a
  124  ls
  125  reboot
  126  ip a
  127  dhclient
  128  ip a
  129  vi /etc/squid/squid.conf
  130  history  > virthost.histort
  131  mv virthost.histort virthost.history
  132  ls
  133  history 
  134  systemctl -l --type service
  135  systemctl -l --type service > service list
  136  systemctl -l --type service > servicelist
  137  ls
  138  rm service
  139  rm -rf service
  140  cat servicelist 
  141  ls
  142  tail virthost.history 
  143  history  > virthost.history 
